493 units
401 inputs
0 0 0 0
1 1 0 0
2 1 0 1
3 1 0 2
4 1 0 3
5 1 0 4
6 1 0 5
7 1 0 6
8 1 0 7
9 1 0 8
10 1 0 9
11 1 0 10
12 1 0 11
13 1 0 12
14 1 0 13
15 1 0 14
16 1 0 15
17 1 0 16
18 1 0 17
19 1 0 18
20 1 0 19
21 1 1 0
22 1 1 1
23 1 1 2
24 1 1 3
25 1 1 4
26 1 1 5
27 1 1 6
28 1 1 7
29 1 1 8
30 1 1 9
31 1 1 10
32 1 1 11
33 1 1 12
34 1 1 13
35 1 1 14
36 1 1 15
37 1 1 16
38 1 1 17
39 1 1 18
40 1 1 19
41 1 2 0
42 1 2 1
43 1 2 2
44 1 2 3
45 1 2 4
46 1 2 5
47 1 2 6
48 1 2 7
49 1 2 8
50 1 2 9
51 1 2 10
52 1 2 11
53 1 2 12
54 1 2 13
55 1 2 14
56 1 2 15
57 1 2 16
58 1 2 17
59 1 2 18
60 1 2 19
61 1 3 0
62 1 3 1
63 1 3 2
64 1 3 3
65 1 3 4
66 1 3 5
67 1 3 6
68 1 3 7
69 1 3 8
70 1 3 9
71 1 3 10
72 1 3 11
73 1 3 12
74 1 3 13
75 1 3 14
76 1 3 15
77 1 3 16
78 1 3 17
79 1 3 18
80 1 3 19
81 1 4 0
82 1 4 1
83 1 4 2
84 1 4 3
85 1 4 4
86 1 4 5
87 1 4 6
88 1 4 7
89 1 4 8
90 1 4 9
91 1 4 10
92 1 4 11
93 1 4 12
94 1 4 13
95 1 4 14
96 1 4 15
97 1 4 16
98 1 4 17
99 1 4 18
100 1 4 19
101 1 5 0
102 1 5 1
103 1 5 2
104 1 5 3
105 1 5 4
106 1 5 5
107 1 5 6
108 1 5 7
109 1 5 8
110 1 5 9
111 1 5 10
112 1 5 11
113 1 5 12
114 1 5 13
115 1 5 14
116 1 5 15
117 1 5 16
118 1 5 17
119 1 5 18
120 1 5 19
121 1 6 0
122 1 6 1
123 1 6 2
124 1 6 3
125 1 6 4
126 1 6 5
127 1 6 6
128 1 6 7
129 1 6 8
130 1 6 9
131 1 6 10
132 1 6 11
133 1 6 12
134 1 6 13
135 1 6 14
136 1 6 15
137 1 6 16
138 1 6 17
139 1 6 18
140 1 6 19
141 1 7 0
142 1 7 1
143 1 7 2
144 1 7 3
145 1 7 4
146 1 7 5
147 1 7 6
148 1 7 7
149 1 7 8
150 1 7 9
151 1 7 10
152 1 7 11
153 1 7 12
154 1 7 13
155 1 7 14
156 1 7 15
157 1 7 16
158 1 7 17
159 1 7 18
160 1 7 19
161 1 8 0
162 1 8 1
163 1 8 2
164 1 8 3
165 1 8 4
166 1 8 5
167 1 8 6
168 1 8 7
169 1 8 8
170 1 8 9
171 1 8 10
172 1 8 11
173 1 8 12
174 1 8 13
175 1 8 14
176 1 8 15
177 1 8 16
178 1 8 17
179 1 8 18
180 1 8 19
181 1 9 0
182 1 9 1
183 1 9 2
184 1 9 3
185 1 9 4
186 1 9 5
187 1 9 6
188 1 9 7
189 1 9 8
190 1 9 9
191 1 9 10
192 1 9 11
193 1 9 12
194 1 9 13
195 1 9 14
196 1 9 15
197 1 9 16
198 1 9 17
199 1 9 18
200 1 9 19
201 1 10 0
202 1 10 1
203 1 10 2
204 1 10 3
205 1 10 4
206 1 10 5
207 1 10 6
208 1 10 7
209 1 10 8
210 1 10 9
211 1 10 10
212 1 10 11
213 1 10 12
214 1 10 13
215 1 10 14
216 1 10 15
217 1 10 16
218 1 10 17
219 1 10 18
220 1 10 19
221 1 11 0
222 1 11 1
223 1 11 2
224 1 11 3
225 1 11 4
226 1 11 5
227 1 11 6
228 1 11 7
229 1 11 8
230 1 11 9
231 1 11 10
232 1 11 11
233 1 11 12
234 1 11 13
235 1 11 14
236 1 11 15
237 1 11 16
238 1 11 17
239 1 11 18
240 1 11 19
241 1 12 0
242 1 12 1
243 1 12 2
244 1 12 3
245 1 12 4
246 1 12 5
247 1 12 6
248 1 12 7
249 1 12 8
250 1 12 9
251 1 12 10
252 1 12 11
253 1 12 12
254 1 12 13
255 1 12 14
256 1 12 15
257 1 12 16
258 1 12 17
259 1 12 18
260 1 12 19
261 1 13 0
262 1 13 1
263 1 13 2
264 1 13 3
265 1 13 4
266 1 13 5
267 1 13 6
268 1 13 7
269 1 13 8
270 1 13 9
271 1 13 10
272 1 13 11
273 1 13 12
274 1 13 13
275 1 13 14
276 1 13 15
277 1 13 16
278 1 13 17
279 1 13 18
280 1 13 19
281 1 14 0
282 1 14 1
283 1 14 2
284 1 14 3
285 1 14 4
286 1 14 5
287 1 14 6
288 1 14 7
289 1 14 8
290 1 14 9
291 1 14 10
292 1 14 11
293 1 14 12
294 1 14 13
295 1 14 14
296 1 14 15
297 1 14 16
298 1 14 17
299 1 14 18
300 1 14 19
301 1 15 0
302 1 15 1
303 1 15 2
304 1 15 3
305 1 15 4
306 1 15 5
307 1 15 6
308 1 15 7
309 1 15 8
310 1 15 9
311 1 15 10
312 1 15 11
313 1 15 12
314 1 15 13
315 1 15 14
316 1 15 15
317 1 15 16
318 1 15 17
319 1 15 18
320 1 15 19
321 1 16 0
322 1 16 1
323 1 16 2
324 1 16 3
325 1 16 4
326 1 16 5
327 1 16 6
328 1 16 7
329 1 16 8
330 1 16 9
331 1 16 10
332 1 16 11
333 1 16 12
334 1 16 13
335 1 16 14
336 1 16 15
337 1 16 16
338 1 16 17
339 1 16 18
340 1 16 19
341 1 17 0
342 1 17 1
343 1 17 2
344 1 17 3
345 1 17 4
346 1 17 5
347 1 17 6
348 1 17 7
349 1 17 8
350 1 17 9
351 1 17 10
352 1 17 11
353 1 17 12
354 1 17 13
355 1 17 14
356 1 17 15
357 1 17 16
358 1 17 17
359 1 17 18
360 1 17 19
361 1 18 0
362 1 18 1
363 1 18 2
364 1 18 3
365 1 18 4
366 1 18 5
367 1 18 6
368 1 18 7
369 1 18 8
370 1 18 9
371 1 18 10
372 1 18 11
373 1 18 12
374 1 18 13
375 1 18 14
376 1 18 15
377 1 18 16
378 1 18 17
379 1 18 18
380 1 18 19
381 1 19 0
382 1 19 1
383 1 19 2
384 1 19 3
385 1 19 4
386 1 19 5
387 1 19 6
388 1 19 7
389 1 19 8
390 1 19 9
391 1 19 10
392 1 19 11
393 1 19 12
394 1 19 13
395 1 19 14
396 1 19 15
397 1 19 16
398 1 19 17
399 1 19 18
400 1 19 19

87 hiddens
401 2 0 0
402 2 0 1
403 2 1 0
404 2 1 1
405 3 0 0
406 3 0 1
407 3 1 0
408 3 1 1
409 4 0 0
410 4 0 1
411 4 1 0
412 4 1 1
413 5 0 0
414 5 0 1
415 5 0 2
416 5 0 3
417 5 1 0
418 5 1 1
419 5 1 2
420 5 1 3
421 5 2 0
422 5 2 1
423 5 2 2
424 5 2 3
425 5 3 0
426 5 3 1
427 5 3 2
428 5 3 3
429 6 0 0
430 6 0 1
431 6 0 2
432 6 0 3
433 6 1 0
434 6 1 1
435 6 1 2
436 6 1 3
437 6 2 0
438 6 2 1
439 6 2 2
440 6 2 3
441 6 3 0
442 6 3 1
443 6 3 2
444 6 3 3
445 7 0 0
446 7 0 1
447 7 0 2
448 7 0 3
449 7 1 0
450 7 1 1
451 7 1 2
452 7 1 3
453 7 2 0
454 7 2 1
455 7 2 2
456 7 2 3
457 7 3 0
458 7 3 1
459 7 3 2
460 7 3 3
461 8 0 0
462 8 1 0
463 8 2 0
464 8 3 0
465 8 4 0
466 8 5 0
467 8 6 0
468 8 7 0
469 8 8 0
470 9 0 0
471 9 1 0
472 9 2 0
473 9 3 0
474 9 4 0
475 9 5 0
476 9 6 0
477 9 7 0
478 9 8 0
479 10 0 0
480 10 1 0
481 10 2 0
482 10 3 0
483 10 4 0
484 10 5 0
485 10 6 0
486 10 7 0
487 10 8 0

5 outputs
488 11 0 0
489 11 0 1
490 11 0 2
491 11 0 3
492 11 0 4

5087 conns
1 401 -1
2 401 -1
3 401 -1
4 401 -1
5 401 -1
6 401 -1
7 401 -1
8 401 -1
9 401 -1
10 401 -1
21 401 -1
22 401 -1
23 401 -1
24 401 -1
25 401 -1
26 401 -1
27 401 -1
28 401 -1
29 401 -1
30 401 -1
41 401 -1
42 401 -1
43 401 -1
44 401 -1
45 401 -1
46 401 -1
47 401 -1
48 401 -1
49 401 -1
50 401 -1
61 401 -1
62 401 -1
63 401 -1
64 401 -1
65 401 -1
66 401 -1
67 401 -1
68 401 -1
69 401 -1
70 401 -1
81 401 -1
82 401 -1
83 401 -1
84 401 -1
85 401 -1
86 401 -1
87 401 -1
88 401 -1
89 401 -1
90 401 -1
101 401 -1
102 401 -1
103 401 -1
104 401 -1
105 401 -1
106 401 -1
107 401 -1
108 401 -1
109 401 -1
110 401 -1
121 401 -1
122 401 -1
123 401 -1
124 401 -1
125 401 -1
126 401 -1
127 401 -1
128 401 -1
129 401 -1
130 401 -1
141 401 -1
142 401 -1
143 401 -1
144 401 -1
145 401 -1
146 401 -1
147 401 -1
148 401 -1
149 401 -1
150 401 -1
161 401 -1
162 401 -1
163 401 -1
164 401 -1
165 401 -1
166 401 -1
167 401 -1
168 401 -1
169 401 -1
170 401 -1
181 401 -1
182 401 -1
183 401 -1
184 401 -1
185 401 -1
186 401 -1
187 401 -1
188 401 -1
189 401 -1
190 401 -1
11 402 -1
12 402 -1
13 402 -1
14 402 -1
15 402 -1
16 402 -1
17 402 -1
18 402 -1
19 402 -1
20 402 -1
31 402 -1
32 402 -1
33 402 -1
34 402 -1
35 402 -1
36 402 -1
37 402 -1
38 402 -1
39 402 -1
40 402 -1
51 402 -1
52 402 -1
53 402 -1
54 402 -1
55 402 -1
56 402 -1
57 402 -1
58 402 -1
59 402 -1
60 402 -1
71 402 -1
72 402 -1
73 402 -1
74 402 -1
75 402 -1
76 402 -1
77 402 -1
78 402 -1
79 402 -1
80 402 -1
91 402 -1
92 402 -1
93 402 -1
94 402 -1
95 402 -1
96 402 -1
97 402 -1
98 402 -1
99 402 -1
100 402 -1
111 402 -1
112 402 -1
113 402 -1
114 402 -1
115 402 -1
116 402 -1
117 402 -1
118 402 -1
119 402 -1
120 402 -1
131 402 -1
132 402 -1
133 402 -1
134 402 -1
135 402 -1
136 402 -1
137 402 -1
138 402 -1
139 402 -1
140 402 -1
151 402 -1
152 402 -1
153 402 -1
154 402 -1
155 402 -1
156 402 -1
157 402 -1
158 402 -1
159 402 -1
160 402 -1
171 402 -1
172 402 -1
173 402 -1
174 402 -1
175 402 -1
176 402 -1
177 402 -1
178 402 -1
179 402 -1
180 402 -1
191 402 -1
192 402 -1
193 402 -1
194 402 -1
195 402 -1
196 402 -1
197 402 -1
198 402 -1
199 402 -1
200 402 -1
201 403 -1
202 403 -1
203 403 -1
204 403 -1
205 403 -1
206 403 -1
207 403 -1
208 403 -1
209 403 -1
210 403 -1
221 403 -1
222 403 -1
223 403 -1
224 403 -1
225 403 -1
226 403 -1
227 403 -1
228 403 -1
229 403 -1
230 403 -1
241 403 -1
242 403 -1
243 403 -1
244 403 -1
245 403 -1
246 403 -1
247 403 -1
248 403 -1
249 403 -1
250 403 -1
261 403 -1
262 403 -1
263 403 -1
264 403 -1
265 403 -1
266 403 -1
267 403 -1
268 403 -1
269 403 -1
270 403 -1
281 403 -1
282 403 -1
283 403 -1
284 403 -1
285 403 -1
286 403 -1
287 403 -1
288 403 -1
289 403 -1
290 403 -1
301 403 -1
302 403 -1
303 403 -1
304 403 -1
305 403 -1
306 403 -1
307 403 -1
308 403 -1
309 403 -1
310 403 -1
321 403 -1
322 403 -1
323 403 -1
324 403 -1
325 403 -1
326 403 -1
327 403 -1
328 403 -1
329 403 -1
330 403 -1
341 403 -1
342 403 -1
343 403 -1
344 403 -1
345 403 -1
346 403 -1
347 403 -1
348 403 -1
349 403 -1
350 403 -1
361 403 -1
362 403 -1
363 403 -1
364 403 -1
365 403 -1
366 403 -1
367 403 -1
368 403 -1
369 403 -1
370 403 -1
381 403 -1
382 403 -1
383 403 -1
384 403 -1
385 403 -1
386 403 -1
387 403 -1
388 403 -1
389 403 -1
390 403 -1
211 404 -1
212 404 -1
213 404 -1
214 404 -1
215 404 -1
216 404 -1
217 404 -1
218 404 -1
219 404 -1
220 404 -1
231 404 -1
232 404 -1
233 404 -1
234 404 -1
235 404 -1
236 404 -1
237 404 -1
238 404 -1
239 404 -1
240 404 -1
251 404 -1
252 404 -1
253 404 -1
254 404 -1
255 404 -1
256 404 -1
257 404 -1
258 404 -1
259 404 -1
260 404 -1
271 404 -1
272 404 -1
273 404 -1
274 404 -1
275 404 -1
276 404 -1
277 404 -1
278 404 -1
279 404 -1
280 404 -1
291 404 -1
292 404 -1
293 404 -1
294 404 -1
295 404 -1
296 404 -1
297 404 -1
298 404 -1
299 404 -1
300 404 -1
311 404 -1
312 404 -1
313 404 -1
314 404 -1
315 404 -1
316 404 -1
317 404 -1
318 404 -1
319 404 -1
320 404 -1
331 404 -1
332 404 -1
333 404 -1
334 404 -1
335 404 -1
336 404 -1
337 404 -1
338 404 -1
339 404 -1
340 404 -1
351 404 -1
352 404 -1
353 404 -1
354 404 -1
355 404 -1
356 404 -1
357 404 -1
358 404 -1
359 404 -1
360 404 -1
371 404 -1
372 404 -1
373 404 -1
374 404 -1
375 404 -1
376 404 -1
377 404 -1
378 404 -1
379 404 -1
380 404 -1
391 404 -1
392 404 -1
393 404 -1
394 404 -1
395 404 -1
396 404 -1
397 404 -1
398 404 -1
399 404 -1
400 404 -1
0 401 -1
0 402 -1
0 403 -1
0 404 -1
1 405 -1
2 405 -1
3 405 -1
4 405 -1
5 405 -1
6 405 -1
7 405 -1
8 405 -1
9 405 -1
10 405 -1
21 405 -1
22 405 -1
23 405 -1
24 405 -1
25 405 -1
26 405 -1
27 405 -1
28 405 -1
29 405 -1
30 405 -1
41 405 -1
42 405 -1
43 405 -1
44 405 -1
45 405 -1
46 405 -1
47 405 -1
48 405 -1
49 405 -1
50 405 -1
61 405 -1
62 405 -1
63 405 -1
64 405 -1
65 405 -1
66 405 -1
67 405 -1
68 405 -1
69 405 -1
70 405 -1
81 405 -1
82 405 -1
83 405 -1
84 405 -1
85 405 -1
86 405 -1
87 405 -1
88 405 -1
89 405 -1
90 405 -1
101 405 -1
102 405 -1
103 405 -1
104 405 -1
105 405 -1
106 405 -1
107 405 -1
108 405 -1
109 405 -1
110 405 -1
121 405 -1
122 405 -1
123 405 -1
124 405 -1
125 405 -1
126 405 -1
127 405 -1
128 405 -1
129 405 -1
130 405 -1
141 405 -1
142 405 -1
143 405 -1
144 405 -1
145 405 -1
146 405 -1
147 405 -1
148 405 -1
149 405 -1
150 405 -1
161 405 -1
162 405 -1
163 405 -1
164 405 -1
165 405 -1
166 405 -1
167 405 -1
168 405 -1
169 405 -1
170 405 -1
181 405 -1
182 405 -1
183 405 -1
184 405 -1
185 405 -1
186 405 -1
187 405 -1
188 405 -1
189 405 -1
190 405 -1
11 406 -1
12 406 -1
13 406 -1
14 406 -1
15 406 -1
16 406 -1
17 406 -1
18 406 -1
19 406 -1
20 406 -1
31 406 -1
32 406 -1
33 406 -1
34 406 -1
35 406 -1
36 406 -1
37 406 -1
38 406 -1
39 406 -1
40 406 -1
51 406 -1
52 406 -1
53 406 -1
54 406 -1
55 406 -1
56 406 -1
57 406 -1
58 406 -1
59 406 -1
60 406 -1
71 406 -1
72 406 -1
73 406 -1
74 406 -1
75 406 -1
76 406 -1
77 406 -1
78 406 -1
79 406 -1
80 406 -1
91 406 -1
92 406 -1
93 406 -1
94 406 -1
95 406 -1
96 406 -1
97 406 -1
98 406 -1
99 406 -1
100 406 -1
111 406 -1
112 406 -1
113 406 -1
114 406 -1
115 406 -1
116 406 -1
117 406 -1
118 406 -1
119 406 -1
120 406 -1
131 406 -1
132 406 -1
133 406 -1
134 406 -1
135 406 -1
136 406 -1
137 406 -1
138 406 -1
139 406 -1
140 406 -1
151 406 -1
152 406 -1
153 406 -1
154 406 -1
155 406 -1
156 406 -1
157 406 -1
158 406 -1
159 406 -1
160 406 -1
171 406 -1
172 406 -1
173 406 -1
174 406 -1
175 406 -1
176 406 -1
177 406 -1
178 406 -1
179 406 -1
180 406 -1
191 406 -1
192 406 -1
193 406 -1
194 406 -1
195 406 -1
196 406 -1
197 406 -1
198 406 -1
199 406 -1
200 406 -1
201 407 -1
202 407 -1
203 407 -1
204 407 -1
205 407 -1
206 407 -1
207 407 -1
208 407 -1
209 407 -1
210 407 -1
221 407 -1
222 407 -1
223 407 -1
224 407 -1
225 407 -1
226 407 -1
227 407 -1
228 407 -1
229 407 -1
230 407 -1
241 407 -1
242 407 -1
243 407 -1
244 407 -1
245 407 -1
246 407 -1
247 407 -1
248 407 -1
249 407 -1
250 407 -1
261 407 -1
262 407 -1
263 407 -1
264 407 -1
265 407 -1
266 407 -1
267 407 -1
268 407 -1
269 407 -1
270 407 -1
281 407 -1
282 407 -1
283 407 -1
284 407 -1
285 407 -1
286 407 -1
287 407 -1
288 407 -1
289 407 -1
290 407 -1
301 407 -1
302 407 -1
303 407 -1
304 407 -1
305 407 -1
306 407 -1
307 407 -1
308 407 -1
309 407 -1
310 407 -1
321 407 -1
322 407 -1
323 407 -1
324 407 -1
325 407 -1
326 407 -1
327 407 -1
328 407 -1
329 407 -1
330 407 -1
341 407 -1
342 407 -1
343 407 -1
344 407 -1
345 407 -1
346 407 -1
347 407 -1
348 407 -1
349 407 -1
350 407 -1
361 407 -1
362 407 -1
363 407 -1
364 407 -1
365 407 -1
366 407 -1
367 407 -1
368 407 -1
369 407 -1
370 407 -1
381 407 -1
382 407 -1
383 407 -1
384 407 -1
385 407 -1
386 407 -1
387 407 -1
388 407 -1
389 407 -1
390 407 -1
211 408 -1
212 408 -1
213 408 -1
214 408 -1
215 408 -1
216 408 -1
217 408 -1
218 408 -1
219 408 -1
220 408 -1
231 408 -1
232 408 -1
233 408 -1
234 408 -1
235 408 -1
236 408 -1
237 408 -1
238 408 -1
239 408 -1
240 408 -1
251 408 -1
252 408 -1
253 408 -1
254 408 -1
255 408 -1
256 408 -1
257 408 -1
258 408 -1
259 408 -1
260 408 -1
271 408 -1
272 408 -1
273 408 -1
274 408 -1
275 408 -1
276 408 -1
277 408 -1
278 408 -1
279 408 -1
280 408 -1
291 408 -1
292 408 -1
293 408 -1
294 408 -1
295 408 -1
296 408 -1
297 408 -1
298 408 -1
299 408 -1
300 408 -1
311 408 -1
312 408 -1
313 408 -1
314 408 -1
315 408 -1
316 408 -1
317 408 -1
318 408 -1
319 408 -1
320 408 -1
331 408 -1
332 408 -1
333 408 -1
334 408 -1
335 408 -1
336 408 -1
337 408 -1
338 408 -1
339 408 -1
340 408 -1
351 408 -1
352 408 -1
353 408 -1
354 408 -1
355 408 -1
356 408 -1
357 408 -1
358 408 -1
359 408 -1
360 408 -1
371 408 -1
372 408 -1
373 408 -1
374 408 -1
375 408 -1
376 408 -1
377 408 -1
378 408 -1
379 408 -1
380 408 -1
391 408 -1
392 408 -1
393 408 -1
394 408 -1
395 408 -1
396 408 -1
397 408 -1
398 408 -1
399 408 -1
400 408 -1
0 405 -1
0 406 -1
0 407 -1
0 408 -1
1 409 -1
2 409 -1
3 409 -1
4 409 -1
5 409 -1
6 409 -1
7 409 -1
8 409 -1
9 409 -1
10 409 -1
21 409 -1
22 409 -1
23 409 -1
24 409 -1
25 409 -1
26 409 -1
27 409 -1
28 409 -1
29 409 -1
30 409 -1
41 409 -1
42 409 -1
43 409 -1
44 409 -1
45 409 -1
46 409 -1
47 409 -1
48 409 -1
49 409 -1
50 409 -1
61 409 -1
62 409 -1
63 409 -1
64 409 -1
65 409 -1
66 409 -1
67 409 -1
68 409 -1
69 409 -1
70 409 -1
81 409 -1
82 409 -1
83 409 -1
84 409 -1
85 409 -1
86 409 -1
87 409 -1
88 409 -1
89 409 -1
90 409 -1
101 409 -1
102 409 -1
103 409 -1
104 409 -1
105 409 -1
106 409 -1
107 409 -1
108 409 -1
109 409 -1
110 409 -1
121 409 -1
122 409 -1
123 409 -1
124 409 -1
125 409 -1
126 409 -1
127 409 -1
128 409 -1
129 409 -1
130 409 -1
141 409 -1
142 409 -1
143 409 -1
144 409 -1
145 409 -1
146 409 -1
147 409 -1
148 409 -1
149 409 -1
150 409 -1
161 409 -1
162 409 -1
163 409 -1
164 409 -1
165 409 -1
166 409 -1
167 409 -1
168 409 -1
169 409 -1
170 409 -1
181 409 -1
182 409 -1
183 409 -1
184 409 -1
185 409 -1
186 409 -1
187 409 -1
188 409 -1
189 409 -1
190 409 -1
11 410 -1
12 410 -1
13 410 -1
14 410 -1
15 410 -1
16 410 -1
17 410 -1
18 410 -1
19 410 -1
20 410 -1
31 410 -1
32 410 -1
33 410 -1
34 410 -1
35 410 -1
36 410 -1
37 410 -1
38 410 -1
39 410 -1
40 410 -1
51 410 -1
52 410 -1
53 410 -1
54 410 -1
55 410 -1
56 410 -1
57 410 -1
58 410 -1
59 410 -1
60 410 -1
71 410 -1
72 410 -1
73 410 -1
74 410 -1
75 410 -1
76 410 -1
77 410 -1
78 410 -1
79 410 -1
80 410 -1
91 410 -1
92 410 -1
93 410 -1
94 410 -1
95 410 -1
96 410 -1
97 410 -1
98 410 -1
99 410 -1
100 410 -1
111 410 -1
112 410 -1
113 410 -1
114 410 -1
115 410 -1
116 410 -1
117 410 -1
118 410 -1
119 410 -1
120 410 -1
131 410 -1
132 410 -1
133 410 -1
134 410 -1
135 410 -1
136 410 -1
137 410 -1
138 410 -1
139 410 -1
140 410 -1
151 410 -1
152 410 -1
153 410 -1
154 410 -1
155 410 -1
156 410 -1
157 410 -1
158 410 -1
159 410 -1
160 410 -1
171 410 -1
172 410 -1
173 410 -1
174 410 -1
175 410 -1
176 410 -1
177 410 -1
178 410 -1
179 410 -1
180 410 -1
191 410 -1
192 410 -1
193 410 -1
194 410 -1
195 410 -1
196 410 -1
197 410 -1
198 410 -1
199 410 -1
200 410 -1
201 411 -1
202 411 -1
203 411 -1
204 411 -1
205 411 -1
206 411 -1
207 411 -1
208 411 -1
209 411 -1
210 411 -1
221 411 -1
222 411 -1
223 411 -1
224 411 -1
225 411 -1
226 411 -1
227 411 -1
228 411 -1
229 411 -1
230 411 -1
241 411 -1
242 411 -1
243 411 -1
244 411 -1
245 411 -1
246 411 -1
247 411 -1
248 411 -1
249 411 -1
250 411 -1
261 411 -1
262 411 -1
263 411 -1
264 411 -1
265 411 -1
266 411 -1
267 411 -1
268 411 -1
269 411 -1
270 411 -1
281 411 -1
282 411 -1
283 411 -1
284 411 -1
285 411 -1
286 411 -1
287 411 -1
288 411 -1
289 411 -1
290 411 -1
301 411 -1
302 411 -1
303 411 -1
304 411 -1
305 411 -1
306 411 -1
307 411 -1
308 411 -1
309 411 -1
310 411 -1
321 411 -1
322 411 -1
323 411 -1
324 411 -1
325 411 -1
326 411 -1
327 411 -1
328 411 -1
329 411 -1
330 411 -1
341 411 -1
342 411 -1
343 411 -1
344 411 -1
345 411 -1
346 411 -1
347 411 -1
348 411 -1
349 411 -1
350 411 -1
361 411 -1
362 411 -1
363 411 -1
364 411 -1
365 411 -1
366 411 -1
367 411 -1
368 411 -1
369 411 -1
370 411 -1
381 411 -1
382 411 -1
383 411 -1
384 411 -1
385 411 -1
386 411 -1
387 411 -1
388 411 -1
389 411 -1
390 411 -1
211 412 -1
212 412 -1
213 412 -1
214 412 -1
215 412 -1
216 412 -1
217 412 -1
218 412 -1
219 412 -1
220 412 -1
231 412 -1
232 412 -1
233 412 -1
234 412 -1
235 412 -1
236 412 -1
237 412 -1
238 412 -1
239 412 -1
240 412 -1
251 412 -1
252 412 -1
253 412 -1
254 412 -1
255 412 -1
256 412 -1
257 412 -1
258 412 -1
259 412 -1
260 412 -1
271 412 -1
272 412 -1
273 412 -1
274 412 -1
275 412 -1
276 412 -1
277 412 -1
278 412 -1
279 412 -1
280 412 -1
291 412 -1
292 412 -1
293 412 -1
294 412 -1
295 412 -1
296 412 -1
297 412 -1
298 412 -1
299 412 -1
300 412 -1
311 412 -1
312 412 -1
313 412 -1
314 412 -1
315 412 -1
316 412 -1
317 412 -1
318 412 -1
319 412 -1
320 412 -1
331 412 -1
332 412 -1
333 412 -1
334 412 -1
335 412 -1
336 412 -1
337 412 -1
338 412 -1
339 412 -1
340 412 -1
351 412 -1
352 412 -1
353 412 -1
354 412 -1
355 412 -1
356 412 -1
357 412 -1
358 412 -1
359 412 -1
360 412 -1
371 412 -1
372 412 -1
373 412 -1
374 412 -1
375 412 -1
376 412 -1
377 412 -1
378 412 -1
379 412 -1
380 412 -1
391 412 -1
392 412 -1
393 412 -1
394 412 -1
395 412 -1
396 412 -1
397 412 -1
398 412 -1
399 412 -1
400 412 -1
0 409 -1
0 410 -1
0 411 -1
0 412 -1
1 413 -1
2 413 -1
3 413 -1
4 413 -1
5 413 -1
21 413 -1
22 413 -1
23 413 -1
24 413 -1
25 413 -1
41 413 -1
42 413 -1
43 413 -1
44 413 -1
45 413 -1
61 413 -1
62 413 -1
63 413 -1
64 413 -1
65 413 -1
81 413 -1
82 413 -1
83 413 -1
84 413 -1
85 413 -1
6 414 -1
7 414 -1
8 414 -1
9 414 -1
10 414 -1
26 414 -1
27 414 -1
28 414 -1
29 414 -1
30 414 -1
46 414 -1
47 414 -1
48 414 -1
49 414 -1
50 414 -1
66 414 -1
67 414 -1
68 414 -1
69 414 -1
70 414 -1
86 414 -1
87 414 -1
88 414 -1
89 414 -1
90 414 -1
11 415 -1
12 415 -1
13 415 -1
14 415 -1
15 415 -1
31 415 -1
32 415 -1
33 415 -1
34 415 -1
35 415 -1
51 415 -1
52 415 -1
53 415 -1
54 415 -1
55 415 -1
71 415 -1
72 415 -1
73 415 -1
74 415 -1
75 415 -1
91 415 -1
92 415 -1
93 415 -1
94 415 -1
95 415 -1
16 416 -1
17 416 -1
18 416 -1
19 416 -1
20 416 -1
36 416 -1
37 416 -1
38 416 -1
39 416 -1
40 416 -1
56 416 -1
57 416 -1
58 416 -1
59 416 -1
60 416 -1
76 416 -1
77 416 -1
78 416 -1
79 416 -1
80 416 -1
96 416 -1
97 416 -1
98 416 -1
99 416 -1
100 416 -1
101 417 -1
102 417 -1
103 417 -1
104 417 -1
105 417 -1
121 417 -1
122 417 -1
123 417 -1
124 417 -1
125 417 -1
141 417 -1
142 417 -1
143 417 -1
144 417 -1
145 417 -1
161 417 -1
162 417 -1
163 417 -1
164 417 -1
165 417 -1
181 417 -1
182 417 -1
183 417 -1
184 417 -1
185 417 -1
106 418 -1
107 418 -1
108 418 -1
109 418 -1
110 418 -1
126 418 -1
127 418 -1
128 418 -1
129 418 -1
130 418 -1
146 418 -1
147 418 -1
148 418 -1
149 418 -1
150 418 -1
166 418 -1
167 418 -1
168 418 -1
169 418 -1
170 418 -1
186 418 -1
187 418 -1
188 418 -1
189 418 -1
190 418 -1
111 419 -1
112 419 -1
113 419 -1
114 419 -1
115 419 -1
131 419 -1
132 419 -1
133 419 -1
134 419 -1
135 419 -1
151 419 -1
152 419 -1
153 419 -1
154 419 -1
155 419 -1
171 419 -1
172 419 -1
173 419 -1
174 419 -1
175 419 -1
191 419 -1
192 419 -1
193 419 -1
194 419 -1
195 419 -1
116 420 -1
117 420 -1
118 420 -1
119 420 -1
120 420 -1
136 420 -1
137 420 -1
138 420 -1
139 420 -1
140 420 -1
156 420 -1
157 420 -1
158 420 -1
159 420 -1
160 420 -1
176 420 -1
177 420 -1
178 420 -1
179 420 -1
180 420 -1
196 420 -1
197 420 -1
198 420 -1
199 420 -1
200 420 -1
201 421 -1
202 421 -1
203 421 -1
204 421 -1
205 421 -1
221 421 -1
222 421 -1
223 421 -1
224 421 -1
225 421 -1
241 421 -1
242 421 -1
243 421 -1
244 421 -1
245 421 -1
261 421 -1
262 421 -1
263 421 -1
264 421 -1
265 421 -1
281 421 -1
282 421 -1
283 421 -1
284 421 -1
285 421 -1
206 422 -1
207 422 -1
208 422 -1
209 422 -1
210 422 -1
226 422 -1
227 422 -1
228 422 -1
229 422 -1
230 422 -1
246 422 -1
247 422 -1
248 422 -1
249 422 -1
250 422 -1
266 422 -1
267 422 -1
268 422 -1
269 422 -1
270 422 -1
286 422 -1
287 422 -1
288 422 -1
289 422 -1
290 422 -1
211 423 -1
212 423 -1
213 423 -1
214 423 -1
215 423 -1
231 423 -1
232 423 -1
233 423 -1
234 423 -1
235 423 -1
251 423 -1
252 423 -1
253 423 -1
254 423 -1
255 423 -1
271 423 -1
272 423 -1
273 423 -1
274 423 -1
275 423 -1
291 423 -1
292 423 -1
293 423 -1
294 423 -1
295 423 -1
216 424 -1
217 424 -1
218 424 -1
219 424 -1
220 424 -1
236 424 -1
237 424 -1
238 424 -1
239 424 -1
240 424 -1
256 424 -1
257 424 -1
258 424 -1
259 424 -1
260 424 -1
276 424 -1
277 424 -1
278 424 -1
279 424 -1
280 424 -1
296 424 -1
297 424 -1
298 424 -1
299 424 -1
300 424 -1
301 425 -1
302 425 -1
303 425 -1
304 425 -1
305 425 -1
321 425 -1
322 425 -1
323 425 -1
324 425 -1
325 425 -1
341 425 -1
342 425 -1
343 425 -1
344 425 -1
345 425 -1
361 425 -1
362 425 -1
363 425 -1
364 425 -1
365 425 -1
381 425 -1
382 425 -1
383 425 -1
384 425 -1
385 425 -1
306 426 -1
307 426 -1
308 426 -1
309 426 -1
310 426 -1
326 426 -1
327 426 -1
328 426 -1
329 426 -1
330 426 -1
346 426 -1
347 426 -1
348 426 -1
349 426 -1
350 426 -1
366 426 -1
367 426 -1
368 426 -1
369 426 -1
370 426 -1
386 426 -1
387 426 -1
388 426 -1
389 426 -1
390 426 -1
311 427 -1
312 427 -1
313 427 -1
314 427 -1
315 427 -1
331 427 -1
332 427 -1
333 427 -1
334 427 -1
335 427 -1
351 427 -1
352 427 -1
353 427 -1
354 427 -1
355 427 -1
371 427 -1
372 427 -1
373 427 -1
374 427 -1
375 427 -1
391 427 -1
392 427 -1
393 427 -1
394 427 -1
395 427 -1
316 428 -1
317 428 -1
318 428 -1
319 428 -1
320 428 -1
336 428 -1
337 428 -1
338 428 -1
339 428 -1
340 428 -1
356 428 -1
357 428 -1
358 428 -1
359 428 -1
360 428 -1
376 428 -1
377 428 -1
378 428 -1
379 428 -1
380 428 -1
396 428 -1
397 428 -1
398 428 -1
399 428 -1
400 428 -1
0 413 -1
0 414 -1
0 415 -1
0 416 -1
0 417 -1
0 418 -1
0 419 -1
0 420 -1
0 421 -1
0 422 -1
0 423 -1
0 424 -1
0 425 -1
0 426 -1
0 427 -1
0 428 -1
1 429 -1
2 429 -1
3 429 -1
4 429 -1
5 429 -1
21 429 -1
22 429 -1
23 429 -1
24 429 -1
25 429 -1
41 429 -1
42 429 -1
43 429 -1
44 429 -1
45 429 -1
61 429 -1
62 429 -1
63 429 -1
64 429 -1
65 429 -1
81 429 -1
82 429 -1
83 429 -1
84 429 -1
85 429 -1
6 430 -1
7 430 -1
8 430 -1
9 430 -1
10 430 -1
26 430 -1
27 430 -1
28 430 -1
29 430 -1
30 430 -1
46 430 -1
47 430 -1
48 430 -1
49 430 -1
50 430 -1
66 430 -1
67 430 -1
68 430 -1
69 430 -1
70 430 -1
86 430 -1
87 430 -1
88 430 -1
89 430 -1
90 430 -1
11 431 -1
12 431 -1
13 431 -1
14 431 -1
15 431 -1
31 431 -1
32 431 -1
33 431 -1
34 431 -1
35 431 -1
51 431 -1
52 431 -1
53 431 -1
54 431 -1
55 431 -1
71 431 -1
72 431 -1
73 431 -1
74 431 -1
75 431 -1
91 431 -1
92 431 -1
93 431 -1
94 431 -1
95 431 -1
16 432 -1
17 432 -1
18 432 -1
19 432 -1
20 432 -1
36 432 -1
37 432 -1
38 432 -1
39 432 -1
40 432 -1
56 432 -1
57 432 -1
58 432 -1
59 432 -1
60 432 -1
76 432 -1
77 432 -1
78 432 -1
79 432 -1
80 432 -1
96 432 -1
97 432 -1
98 432 -1
99 432 -1
100 432 -1
101 433 -1
102 433 -1
103 433 -1
104 433 -1
105 433 -1
121 433 -1
122 433 -1
123 433 -1
124 433 -1
125 433 -1
141 433 -1
142 433 -1
143 433 -1
144 433 -1
145 433 -1
161 433 -1
162 433 -1
163 433 -1
164 433 -1
165 433 -1
181 433 -1
182 433 -1
183 433 -1
184 433 -1
185 433 -1
106 434 -1
107 434 -1
108 434 -1
109 434 -1
110 434 -1
126 434 -1
127 434 -1
128 434 -1
129 434 -1
130 434 -1
146 434 -1
147 434 -1
148 434 -1
149 434 -1
150 434 -1
166 434 -1
167 434 -1
168 434 -1
169 434 -1
170 434 -1
186 434 -1
187 434 -1
188 434 -1
189 434 -1
190 434 -1
111 435 -1
112 435 -1
113 435 -1
114 435 -1
115 435 -1
131 435 -1
132 435 -1
133 435 -1
134 435 -1
135 435 -1
151 435 -1
152 435 -1
153 435 -1
154 435 -1
155 435 -1
171 435 -1
172 435 -1
173 435 -1
174 435 -1
175 435 -1
191 435 -1
192 435 -1
193 435 -1
194 435 -1
195 435 -1
116 436 -1
117 436 -1
118 436 -1
119 436 -1
120 436 -1
136 436 -1
137 436 -1
138 436 -1
139 436 -1
140 436 -1
156 436 -1
157 436 -1
158 436 -1
159 436 -1
160 436 -1
176 436 -1
177 436 -1
178 436 -1
179 436 -1
180 436 -1
196 436 -1
197 436 -1
198 436 -1
199 436 -1
200 436 -1
201 437 -1
202 437 -1
203 437 -1
204 437 -1
205 437 -1
221 437 -1
222 437 -1
223 437 -1
224 437 -1
225 437 -1
241 437 -1
242 437 -1
243 437 -1
244 437 -1
245 437 -1
261 437 -1
262 437 -1
263 437 -1
264 437 -1
265 437 -1
281 437 -1
282 437 -1
283 437 -1
284 437 -1
285 437 -1
206 438 -1
207 438 -1
208 438 -1
209 438 -1
210 438 -1
226 438 -1
227 438 -1
228 438 -1
229 438 -1
230 438 -1
246 438 -1
247 438 -1
248 438 -1
249 438 -1
250 438 -1
266 438 -1
267 438 -1
268 438 -1
269 438 -1
270 438 -1
286 438 -1
287 438 -1
288 438 -1
289 438 -1
290 438 -1
211 439 -1
212 439 -1
213 439 -1
214 439 -1
215 439 -1
231 439 -1
232 439 -1
233 439 -1
234 439 -1
235 439 -1
251 439 -1
252 439 -1
253 439 -1
254 439 -1
255 439 -1
271 439 -1
272 439 -1
273 439 -1
274 439 -1
275 439 -1
291 439 -1
292 439 -1
293 439 -1
294 439 -1
295 439 -1
216 440 -1
217 440 -1
218 440 -1
219 440 -1
220 440 -1
236 440 -1
237 440 -1
238 440 -1
239 440 -1
240 440 -1
256 440 -1
257 440 -1
258 440 -1
259 440 -1
260 440 -1
276 440 -1
277 440 -1
278 440 -1
279 440 -1
280 440 -1
296 440 -1
297 440 -1
298 440 -1
299 440 -1
300 440 -1
301 441 -1
302 441 -1
303 441 -1
304 441 -1
305 441 -1
321 441 -1
322 441 -1
323 441 -1
324 441 -1
325 441 -1
341 441 -1
342 441 -1
343 441 -1
344 441 -1
345 441 -1
361 441 -1
362 441 -1
363 441 -1
364 441 -1
365 441 -1
381 441 -1
382 441 -1
383 441 -1
384 441 -1
385 441 -1
306 442 -1
307 442 -1
308 442 -1
309 442 -1
310 442 -1
326 442 -1
327 442 -1
328 442 -1
329 442 -1
330 442 -1
346 442 -1
347 442 -1
348 442 -1
349 442 -1
350 442 -1
366 442 -1
367 442 -1
368 442 -1
369 442 -1
370 442 -1
386 442 -1
387 442 -1
388 442 -1
389 442 -1
390 442 -1
311 443 -1
312 443 -1
313 443 -1
314 443 -1
315 443 -1
331 443 -1
332 443 -1
333 443 -1
334 443 -1
335 443 -1
351 443 -1
352 443 -1
353 443 -1
354 443 -1
355 443 -1
371 443 -1
372 443 -1
373 443 -1
374 443 -1
375 443 -1
391 443 -1
392 443 -1
393 443 -1
394 443 -1
395 443 -1
316 444 -1
317 444 -1
318 444 -1
319 444 -1
320 444 -1
336 444 -1
337 444 -1
338 444 -1
339 444 -1
340 444 -1
356 444 -1
357 444 -1
358 444 -1
359 444 -1
360 444 -1
376 444 -1
377 444 -1
378 444 -1
379 444 -1
380 444 -1
396 444 -1
397 444 -1
398 444 -1
399 444 -1
400 444 -1
0 429 -1
0 430 -1
0 431 -1
0 432 -1
0 433 -1
0 434 -1
0 435 -1
0 436 -1
0 437 -1
0 438 -1
0 439 -1
0 440 -1
0 441 -1
0 442 -1
0 443 -1
0 444 -1
1 445 -1
2 445 -1
3 445 -1
4 445 -1
5 445 -1
21 445 -1
22 445 -1
23 445 -1
24 445 -1
25 445 -1
41 445 -1
42 445 -1
43 445 -1
44 445 -1
45 445 -1
61 445 -1
62 445 -1
63 445 -1
64 445 -1
65 445 -1
81 445 -1
82 445 -1
83 445 -1
84 445 -1
85 445 -1
6 446 -1
7 446 -1
8 446 -1
9 446 -1
10 446 -1
26 446 -1
27 446 -1
28 446 -1
29 446 -1
30 446 -1
46 446 -1
47 446 -1
48 446 -1
49 446 -1
50 446 -1
66 446 -1
67 446 -1
68 446 -1
69 446 -1
70 446 -1
86 446 -1
87 446 -1
88 446 -1
89 446 -1
90 446 -1
11 447 -1
12 447 -1
13 447 -1
14 447 -1
15 447 -1
31 447 -1
32 447 -1
33 447 -1
34 447 -1
35 447 -1
51 447 -1
52 447 -1
53 447 -1
54 447 -1
55 447 -1
71 447 -1
72 447 -1
73 447 -1
74 447 -1
75 447 -1
91 447 -1
92 447 -1
93 447 -1
94 447 -1
95 447 -1
16 448 -1
17 448 -1
18 448 -1
19 448 -1
20 448 -1
36 448 -1
37 448 -1
38 448 -1
39 448 -1
40 448 -1
56 448 -1
57 448 -1
58 448 -1
59 448 -1
60 448 -1
76 448 -1
77 448 -1
78 448 -1
79 448 -1
80 448 -1
96 448 -1
97 448 -1
98 448 -1
99 448 -1
100 448 -1
101 449 -1
102 449 -1
103 449 -1
104 449 -1
105 449 -1
121 449 -1
122 449 -1
123 449 -1
124 449 -1
125 449 -1
141 449 -1
142 449 -1
143 449 -1
144 449 -1
145 449 -1
161 449 -1
162 449 -1
163 449 -1
164 449 -1
165 449 -1
181 449 -1
182 449 -1
183 449 -1
184 449 -1
185 449 -1
106 450 -1
107 450 -1
108 450 -1
109 450 -1
110 450 -1
126 450 -1
127 450 -1
128 450 -1
129 450 -1
130 450 -1
146 450 -1
147 450 -1
148 450 -1
149 450 -1
150 450 -1
166 450 -1
167 450 -1
168 450 -1
169 450 -1
170 450 -1
186 450 -1
187 450 -1
188 450 -1
189 450 -1
190 450 -1
111 451 -1
112 451 -1
113 451 -1
114 451 -1
115 451 -1
131 451 -1
132 451 -1
133 451 -1
134 451 -1
135 451 -1
151 451 -1
152 451 -1
153 451 -1
154 451 -1
155 451 -1
171 451 -1
172 451 -1
173 451 -1
174 451 -1
175 451 -1
191 451 -1
192 451 -1
193 451 -1
194 451 -1
195 451 -1
116 452 -1
117 452 -1
118 452 -1
119 452 -1
120 452 -1
136 452 -1
137 452 -1
138 452 -1
139 452 -1
140 452 -1
156 452 -1
157 452 -1
158 452 -1
159 452 -1
160 452 -1
176 452 -1
177 452 -1
178 452 -1
179 452 -1
180 452 -1
196 452 -1
197 452 -1
198 452 -1
199 452 -1
200 452 -1
201 453 -1
202 453 -1
203 453 -1
204 453 -1
205 453 -1
221 453 -1
222 453 -1
223 453 -1
224 453 -1
225 453 -1
241 453 -1
242 453 -1
243 453 -1
244 453 -1
245 453 -1
261 453 -1
262 453 -1
263 453 -1
264 453 -1
265 453 -1
281 453 -1
282 453 -1
283 453 -1
284 453 -1
285 453 -1
206 454 -1
207 454 -1
208 454 -1
209 454 -1
210 454 -1
226 454 -1
227 454 -1
228 454 -1
229 454 -1
230 454 -1
246 454 -1
247 454 -1
248 454 -1
249 454 -1
250 454 -1
266 454 -1
267 454 -1
268 454 -1
269 454 -1
270 454 -1
286 454 -1
287 454 -1
288 454 -1
289 454 -1
290 454 -1
211 455 -1
212 455 -1
213 455 -1
214 455 -1
215 455 -1
231 455 -1
232 455 -1
233 455 -1
234 455 -1
235 455 -1
251 455 -1
252 455 -1
253 455 -1
254 455 -1
255 455 -1
271 455 -1
272 455 -1
273 455 -1
274 455 -1
275 455 -1
291 455 -1
292 455 -1
293 455 -1
294 455 -1
295 455 -1
216 456 -1
217 456 -1
218 456 -1
219 456 -1
220 456 -1
236 456 -1
237 456 -1
238 456 -1
239 456 -1
240 456 -1
256 456 -1
257 456 -1
258 456 -1
259 456 -1
260 456 -1
276 456 -1
277 456 -1
278 456 -1
279 456 -1
280 456 -1
296 456 -1
297 456 -1
298 456 -1
299 456 -1
300 456 -1
301 457 -1
302 457 -1
303 457 -1
304 457 -1
305 457 -1
321 457 -1
322 457 -1
323 457 -1
324 457 -1
325 457 -1
341 457 -1
342 457 -1
343 457 -1
344 457 -1
345 457 -1
361 457 -1
362 457 -1
363 457 -1
364 457 -1
365 457 -1
381 457 -1
382 457 -1
383 457 -1
384 457 -1
385 457 -1
306 458 -1
307 458 -1
308 458 -1
309 458 -1
310 458 -1
326 458 -1
327 458 -1
328 458 -1
329 458 -1
330 458 -1
346 458 -1
347 458 -1
348 458 -1
349 458 -1
350 458 -1
366 458 -1
367 458 -1
368 458 -1
369 458 -1
370 458 -1
386 458 -1
387 458 -1
388 458 -1
389 458 -1
390 458 -1
311 459 -1
312 459 -1
313 459 -1
314 459 -1
315 459 -1
331 459 -1
332 459 -1
333 459 -1
334 459 -1
335 459 -1
351 459 -1
352 459 -1
353 459 -1
354 459 -1
355 459 -1
371 459 -1
372 459 -1
373 459 -1
374 459 -1
375 459 -1
391 459 -1
392 459 -1
393 459 -1
394 459 -1
395 459 -1
316 460 -1
317 460 -1
318 460 -1
319 460 -1
320 460 -1
336 460 -1
337 460 -1
338 460 -1
339 460 -1
340 460 -1
356 460 -1
357 460 -1
358 460 -1
359 460 -1
360 460 -1
376 460 -1
377 460 -1
378 460 -1
379 460 -1
380 460 -1
396 460 -1
397 460 -1
398 460 -1
399 460 -1
400 460 -1
0 445 -1
0 446 -1
0 447 -1
0 448 -1
0 449 -1
0 450 -1
0 451 -1
0 452 -1
0 453 -1
0 454 -1
0 455 -1
0 456 -1
0 457 -1
0 458 -1
0 459 -1
0 460 -1
1 461 -1
2 461 -1
3 461 -1
4 461 -1
5 461 -1
6 461 -1
7 461 -1
8 461 -1
9 461 -1
10 461 -1
11 461 -1
12 461 -1
13 461 -1
14 461 -1
15 461 -1
16 461 -1
17 461 -1
18 461 -1
19 461 -1
20 461 -1
21 461 -1
22 461 -1
23 461 -1
24 461 -1
25 461 -1
26 461 -1
27 461 -1
28 461 -1
29 461 -1
30 461 -1
31 461 -1
32 461 -1
33 461 -1
34 461 -1
35 461 -1
36 461 -1
37 461 -1
38 461 -1
39 461 -1
40 461 -1
41 461 -1
42 461 -1
43 461 -1
44 461 -1
45 461 -1
46 461 -1
47 461 -1
48 461 -1
49 461 -1
50 461 -1
51 461 -1
52 461 -1
53 461 -1
54 461 -1
55 461 -1
56 461 -1
57 461 -1
58 461 -1
59 461 -1
60 461 -1
61 461 -1
62 461 -1
63 461 -1
64 461 -1
65 461 -1
66 461 -1
67 461 -1
68 461 -1
69 461 -1
70 461 -1
71 461 -1
72 461 -1
73 461 -1
74 461 -1
75 461 -1
76 461 -1
77 461 -1
78 461 -1
79 461 -1
80 461 -1
41 462 -1
42 462 -1
43 462 -1
44 462 -1
45 462 -1
46 462 -1
47 462 -1
48 462 -1
49 462 -1
50 462 -1
51 462 -1
52 462 -1
53 462 -1
54 462 -1
55 462 -1
56 462 -1
57 462 -1
58 462 -1
59 462 -1
60 462 -1
61 462 -1
62 462 -1
63 462 -1
64 462 -1
65 462 -1
66 462 -1
67 462 -1
68 462 -1
69 462 -1
70 462 -1
71 462 -1
72 462 -1
73 462 -1
74 462 -1
75 462 -1
76 462 -1
77 462 -1
78 462 -1
79 462 -1
80 462 -1
81 462 -1
82 462 -1
83 462 -1
84 462 -1
85 462 -1
86 462 -1
87 462 -1
88 462 -1
89 462 -1
90 462 -1
91 462 -1
92 462 -1
93 462 -1
94 462 -1
95 462 -1
96 462 -1
97 462 -1
98 462 -1
99 462 -1
100 462 -1
101 462 -1
102 462 -1
103 462 -1
104 462 -1
105 462 -1
106 462 -1
107 462 -1
108 462 -1
109 462 -1
110 462 -1
111 462 -1
112 462 -1
113 462 -1
114 462 -1
115 462 -1
116 462 -1
117 462 -1
118 462 -1
119 462 -1
120 462 -1
81 463 -1
82 463 -1
83 463 -1
84 463 -1
85 463 -1
86 463 -1
87 463 -1
88 463 -1
89 463 -1
90 463 -1
91 463 -1
92 463 -1
93 463 -1
94 463 -1
95 463 -1
96 463 -1
97 463 -1
98 463 -1
99 463 -1
100 463 -1
101 463 -1
102 463 -1
103 463 -1
104 463 -1
105 463 -1
106 463 -1
107 463 -1
108 463 -1
109 463 -1
110 463 -1
111 463 -1
112 463 -1
113 463 -1
114 463 -1
115 463 -1
116 463 -1
117 463 -1
118 463 -1
119 463 -1
120 463 -1
121 463 -1
122 463 -1
123 463 -1
124 463 -1
125 463 -1
126 463 -1
127 463 -1
128 463 -1
129 463 -1
130 463 -1
131 463 -1
132 463 -1
133 463 -1
134 463 -1
135 463 -1
136 463 -1
137 463 -1
138 463 -1
139 463 -1
140 463 -1
141 463 -1
142 463 -1
143 463 -1
144 463 -1
145 463 -1
146 463 -1
147 463 -1
148 463 -1
149 463 -1
150 463 -1
151 463 -1
152 463 -1
153 463 -1
154 463 -1
155 463 -1
156 463 -1
157 463 -1
158 463 -1
159 463 -1
160 463 -1
121 464 -1
122 464 -1
123 464 -1
124 464 -1
125 464 -1
126 464 -1
127 464 -1
128 464 -1
129 464 -1
130 464 -1
131 464 -1
132 464 -1
133 464 -1
134 464 -1
135 464 -1
136 464 -1
137 464 -1
138 464 -1
139 464 -1
140 464 -1
141 464 -1
142 464 -1
143 464 -1
144 464 -1
145 464 -1
146 464 -1
147 464 -1
148 464 -1
149 464 -1
150 464 -1
151 464 -1
152 464 -1
153 464 -1
154 464 -1
155 464 -1
156 464 -1
157 464 -1
158 464 -1
159 464 -1
160 464 -1
161 464 -1
162 464 -1
163 464 -1
164 464 -1
165 464 -1
166 464 -1
167 464 -1
168 464 -1
169 464 -1
170 464 -1
171 464 -1
172 464 -1
173 464 -1
174 464 -1
175 464 -1
176 464 -1
177 464 -1
178 464 -1
179 464 -1
180 464 -1
181 464 -1
182 464 -1
183 464 -1
184 464 -1
185 464 -1
186 464 -1
187 464 -1
188 464 -1
189 464 -1
190 464 -1
191 464 -1
192 464 -1
193 464 -1
194 464 -1
195 464 -1
196 464 -1
197 464 -1
198 464 -1
199 464 -1
200 464 -1
161 465 -1
162 465 -1
163 465 -1
164 465 -1
165 465 -1
166 465 -1
167 465 -1
168 465 -1
169 465 -1
170 465 -1
171 465 -1
172 465 -1
173 465 -1
174 465 -1
175 465 -1
176 465 -1
177 465 -1
178 465 -1
179 465 -1
180 465 -1
181 465 -1
182 465 -1
183 465 -1
184 465 -1
185 465 -1
186 465 -1
187 465 -1
188 465 -1
189 465 -1
190 465 -1
191 465 -1
192 465 -1
193 465 -1
194 465 -1
195 465 -1
196 465 -1
197 465 -1
198 465 -1
199 465 -1
200 465 -1
201 465 -1
202 465 -1
203 465 -1
204 465 -1
205 465 -1
206 465 -1
207 465 -1
208 465 -1
209 465 -1
210 465 -1
211 465 -1
212 465 -1
213 465 -1
214 465 -1
215 465 -1
216 465 -1
217 465 -1
218 465 -1
219 465 -1
220 465 -1
221 465 -1
222 465 -1
223 465 -1
224 465 -1
225 465 -1
226 465 -1
227 465 -1
228 465 -1
229 465 -1
230 465 -1
231 465 -1
232 465 -1
233 465 -1
234 465 -1
235 465 -1
236 465 -1
237 465 -1
238 465 -1
239 465 -1
240 465 -1
201 466 -1
202 466 -1
203 466 -1
204 466 -1
205 466 -1
206 466 -1
207 466 -1
208 466 -1
209 466 -1
210 466 -1
211 466 -1
212 466 -1
213 466 -1
214 466 -1
215 466 -1
216 466 -1
217 466 -1
218 466 -1
219 466 -1
220 466 -1
221 466 -1
222 466 -1
223 466 -1
224 466 -1
225 466 -1
226 466 -1
227 466 -1
228 466 -1
229 466 -1
230 466 -1
231 466 -1
232 466 -1
233 466 -1
234 466 -1
235 466 -1
236 466 -1
237 466 -1
238 466 -1
239 466 -1
240 466 -1
241 466 -1
242 466 -1
243 466 -1
244 466 -1
245 466 -1
246 466 -1
247 466 -1
248 466 -1
249 466 -1
250 466 -1
251 466 -1
252 466 -1
253 466 -1
254 466 -1
255 466 -1
256 466 -1
257 466 -1
258 466 -1
259 466 -1
260 466 -1
261 466 -1
262 466 -1
263 466 -1
264 466 -1
265 466 -1
266 466 -1
267 466 -1
268 466 -1
269 466 -1
270 466 -1
271 466 -1
272 466 -1
273 466 -1
274 466 -1
275 466 -1
276 466 -1
277 466 -1
278 466 -1
279 466 -1
280 466 -1
241 467 -1
242 467 -1
243 467 -1
244 467 -1
245 467 -1
246 467 -1
247 467 -1
248 467 -1
249 467 -1
250 467 -1
251 467 -1
252 467 -1
253 467 -1
254 467 -1
255 467 -1
256 467 -1
257 467 -1
258 467 -1
259 467 -1
260 467 -1
261 467 -1
262 467 -1
263 467 -1
264 467 -1
265 467 -1
266 467 -1
267 467 -1
268 467 -1
269 467 -1
270 467 -1
271 467 -1
272 467 -1
273 467 -1
274 467 -1
275 467 -1
276 467 -1
277 467 -1
278 467 -1
279 467 -1
280 467 -1
281 467 -1
282 467 -1
283 467 -1
284 467 -1
285 467 -1
286 467 -1
287 467 -1
288 467 -1
289 467 -1
290 467 -1
291 467 -1
292 467 -1
293 467 -1
294 467 -1
295 467 -1
296 467 -1
297 467 -1
298 467 -1
299 467 -1
300 467 -1
301 467 -1
302 467 -1
303 467 -1
304 467 -1
305 467 -1
306 467 -1
307 467 -1
308 467 -1
309 467 -1
310 467 -1
311 467 -1
312 467 -1
313 467 -1
314 467 -1
315 467 -1
316 467 -1
317 467 -1
318 467 -1
319 467 -1
320 467 -1
281 468 -1
282 468 -1
283 468 -1
284 468 -1
285 468 -1
286 468 -1
287 468 -1
288 468 -1
289 468 -1
290 468 -1
291 468 -1
292 468 -1
293 468 -1
294 468 -1
295 468 -1
296 468 -1
297 468 -1
298 468 -1
299 468 -1
300 468 -1
301 468 -1
302 468 -1
303 468 -1
304 468 -1
305 468 -1
306 468 -1
307 468 -1
308 468 -1
309 468 -1
310 468 -1
311 468 -1
312 468 -1
313 468 -1
314 468 -1
315 468 -1
316 468 -1
317 468 -1
318 468 -1
319 468 -1
320 468 -1
321 468 -1
322 468 -1
323 468 -1
324 468 -1
325 468 -1
326 468 -1
327 468 -1
328 468 -1
329 468 -1
330 468 -1
331 468 -1
332 468 -1
333 468 -1
334 468 -1
335 468 -1
336 468 -1
337 468 -1
338 468 -1
339 468 -1
340 468 -1
341 468 -1
342 468 -1
343 468 -1
344 468 -1
345 468 -1
346 468 -1
347 468 -1
348 468 -1
349 468 -1
350 468 -1
351 468 -1
352 468 -1
353 468 -1
354 468 -1
355 468 -1
356 468 -1
357 468 -1
358 468 -1
359 468 -1
360 468 -1
321 469 -1
322 469 -1
323 469 -1
324 469 -1
325 469 -1
326 469 -1
327 469 -1
328 469 -1
329 469 -1
330 469 -1
331 469 -1
332 469 -1
333 469 -1
334 469 -1
335 469 -1
336 469 -1
337 469 -1
338 469 -1
339 469 -1
340 469 -1
341 469 -1
342 469 -1
343 469 -1
344 469 -1
345 469 -1
346 469 -1
347 469 -1
348 469 -1
349 469 -1
350 469 -1
351 469 -1
352 469 -1
353 469 -1
354 469 -1
355 469 -1
356 469 -1
357 469 -1
358 469 -1
359 469 -1
360 469 -1
361 469 -1
362 469 -1
363 469 -1
364 469 -1
365 469 -1
366 469 -1
367 469 -1
368 469 -1
369 469 -1
370 469 -1
371 469 -1
372 469 -1
373 469 -1
374 469 -1
375 469 -1
376 469 -1
377 469 -1
378 469 -1
379 469 -1
380 469 -1
381 469 -1
382 469 -1
383 469 -1
384 469 -1
385 469 -1
386 469 -1
387 469 -1
388 469 -1
389 469 -1
390 469 -1
391 469 -1
392 469 -1
393 469 -1
394 469 -1
395 469 -1
396 469 -1
397 469 -1
398 469 -1
399 469 -1
400 469 -1
0 461 -1
0 462 -1
0 463 -1
0 464 -1
0 465 -1
0 466 -1
0 467 -1
0 468 -1
0 469 -1
1 470 -1
2 470 -1
3 470 -1
4 470 -1
5 470 -1
6 470 -1
7 470 -1
8 470 -1
9 470 -1
10 470 -1
11 470 -1
12 470 -1
13 470 -1
14 470 -1
15 470 -1
16 470 -1
17 470 -1
18 470 -1
19 470 -1
20 470 -1
21 470 -1
22 470 -1
23 470 -1
24 470 -1
25 470 -1
26 470 -1
27 470 -1
28 470 -1
29 470 -1
30 470 -1
31 470 -1
32 470 -1
33 470 -1
34 470 -1
35 470 -1
36 470 -1
37 470 -1
38 470 -1
39 470 -1
40 470 -1
41 470 -1
42 470 -1
43 470 -1
44 470 -1
45 470 -1
46 470 -1
47 470 -1
48 470 -1
49 470 -1
50 470 -1
51 470 -1
52 470 -1
53 470 -1
54 470 -1
55 470 -1
56 470 -1
57 470 -1
58 470 -1
59 470 -1
60 470 -1
61 470 -1
62 470 -1
63 470 -1
64 470 -1
65 470 -1
66 470 -1
67 470 -1
68 470 -1
69 470 -1
70 470 -1
71 470 -1
72 470 -1
73 470 -1
74 470 -1
75 470 -1
76 470 -1
77 470 -1
78 470 -1
79 470 -1
80 470 -1
41 471 -1
42 471 -1
43 471 -1
44 471 -1
45 471 -1
46 471 -1
47 471 -1
48 471 -1
49 471 -1
50 471 -1
51 471 -1
52 471 -1
53 471 -1
54 471 -1
55 471 -1
56 471 -1
57 471 -1
58 471 -1
59 471 -1
60 471 -1
61 471 -1
62 471 -1
63 471 -1
64 471 -1
65 471 -1
66 471 -1
67 471 -1
68 471 -1
69 471 -1
70 471 -1
71 471 -1
72 471 -1
73 471 -1
74 471 -1
75 471 -1
76 471 -1
77 471 -1
78 471 -1
79 471 -1
80 471 -1
81 471 -1
82 471 -1
83 471 -1
84 471 -1
85 471 -1
86 471 -1
87 471 -1
88 471 -1
89 471 -1
90 471 -1
91 471 -1
92 471 -1
93 471 -1
94 471 -1
95 471 -1
96 471 -1
97 471 -1
98 471 -1
99 471 -1
100 471 -1
101 471 -1
102 471 -1
103 471 -1
104 471 -1
105 471 -1
106 471 -1
107 471 -1
108 471 -1
109 471 -1
110 471 -1
111 471 -1
112 471 -1
113 471 -1
114 471 -1
115 471 -1
116 471 -1
117 471 -1
118 471 -1
119 471 -1
120 471 -1
81 472 -1
82 472 -1
83 472 -1
84 472 -1
85 472 -1
86 472 -1
87 472 -1
88 472 -1
89 472 -1
90 472 -1
91 472 -1
92 472 -1
93 472 -1
94 472 -1
95 472 -1
96 472 -1
97 472 -1
98 472 -1
99 472 -1
100 472 -1
101 472 -1
102 472 -1
103 472 -1
104 472 -1
105 472 -1
106 472 -1
107 472 -1
108 472 -1
109 472 -1
110 472 -1
111 472 -1
112 472 -1
113 472 -1
114 472 -1
115 472 -1
116 472 -1
117 472 -1
118 472 -1
119 472 -1
120 472 -1
121 472 -1
122 472 -1
123 472 -1
124 472 -1
125 472 -1
126 472 -1
127 472 -1
128 472 -1
129 472 -1
130 472 -1
131 472 -1
132 472 -1
133 472 -1
134 472 -1
135 472 -1
136 472 -1
137 472 -1
138 472 -1
139 472 -1
140 472 -1
141 472 -1
142 472 -1
143 472 -1
144 472 -1
145 472 -1
146 472 -1
147 472 -1
148 472 -1
149 472 -1
150 472 -1
151 472 -1
152 472 -1
153 472 -1
154 472 -1
155 472 -1
156 472 -1
157 472 -1
158 472 -1
159 472 -1
160 472 -1
121 473 -1
122 473 -1
123 473 -1
124 473 -1
125 473 -1
126 473 -1
127 473 -1
128 473 -1
129 473 -1
130 473 -1
131 473 -1
132 473 -1
133 473 -1
134 473 -1
135 473 -1
136 473 -1
137 473 -1
138 473 -1
139 473 -1
140 473 -1
141 473 -1
142 473 -1
143 473 -1
144 473 -1
145 473 -1
146 473 -1
147 473 -1
148 473 -1
149 473 -1
150 473 -1
151 473 -1
152 473 -1
153 473 -1
154 473 -1
155 473 -1
156 473 -1
157 473 -1
158 473 -1
159 473 -1
160 473 -1
161 473 -1
162 473 -1
163 473 -1
164 473 -1
165 473 -1
166 473 -1
167 473 -1
168 473 -1
169 473 -1
170 473 -1
171 473 -1
172 473 -1
173 473 -1
174 473 -1
175 473 -1
176 473 -1
177 473 -1
178 473 -1
179 473 -1
180 473 -1
181 473 -1
182 473 -1
183 473 -1
184 473 -1
185 473 -1
186 473 -1
187 473 -1
188 473 -1
189 473 -1
190 473 -1
191 473 -1
192 473 -1
193 473 -1
194 473 -1
195 473 -1
196 473 -1
197 473 -1
198 473 -1
199 473 -1
200 473 -1
161 474 -1
162 474 -1
163 474 -1
164 474 -1
165 474 -1
166 474 -1
167 474 -1
168 474 -1
169 474 -1
170 474 -1
171 474 -1
172 474 -1
173 474 -1
174 474 -1
175 474 -1
176 474 -1
177 474 -1
178 474 -1
179 474 -1
180 474 -1
181 474 -1
182 474 -1
183 474 -1
184 474 -1
185 474 -1
186 474 -1
187 474 -1
188 474 -1
189 474 -1
190 474 -1
191 474 -1
192 474 -1
193 474 -1
194 474 -1
195 474 -1
196 474 -1
197 474 -1
198 474 -1
199 474 -1
200 474 -1
201 474 -1
202 474 -1
203 474 -1
204 474 -1
205 474 -1
206 474 -1
207 474 -1
208 474 -1
209 474 -1
210 474 -1
211 474 -1
212 474 -1
213 474 -1
214 474 -1
215 474 -1
216 474 -1
217 474 -1
218 474 -1
219 474 -1
220 474 -1
221 474 -1
222 474 -1
223 474 -1
224 474 -1
225 474 -1
226 474 -1
227 474 -1
228 474 -1
229 474 -1
230 474 -1
231 474 -1
232 474 -1
233 474 -1
234 474 -1
235 474 -1
236 474 -1
237 474 -1
238 474 -1
239 474 -1
240 474 -1
201 475 -1
202 475 -1
203 475 -1
204 475 -1
205 475 -1
206 475 -1
207 475 -1
208 475 -1
209 475 -1
210 475 -1
211 475 -1
212 475 -1
213 475 -1
214 475 -1
215 475 -1
216 475 -1
217 475 -1
218 475 -1
219 475 -1
220 475 -1
221 475 -1
222 475 -1
223 475 -1
224 475 -1
225 475 -1
226 475 -1
227 475 -1
228 475 -1
229 475 -1
230 475 -1
231 475 -1
232 475 -1
233 475 -1
234 475 -1
235 475 -1
236 475 -1
237 475 -1
238 475 -1
239 475 -1
240 475 -1
241 475 -1
242 475 -1
243 475 -1
244 475 -1
245 475 -1
246 475 -1
247 475 -1
248 475 -1
249 475 -1
250 475 -1
251 475 -1
252 475 -1
253 475 -1
254 475 -1
255 475 -1
256 475 -1
257 475 -1
258 475 -1
259 475 -1
260 475 -1
261 475 -1
262 475 -1
263 475 -1
264 475 -1
265 475 -1
266 475 -1
267 475 -1
268 475 -1
269 475 -1
270 475 -1
271 475 -1
272 475 -1
273 475 -1
274 475 -1
275 475 -1
276 475 -1
277 475 -1
278 475 -1
279 475 -1
280 475 -1
241 476 -1
242 476 -1
243 476 -1
244 476 -1
245 476 -1
246 476 -1
247 476 -1
248 476 -1
249 476 -1
250 476 -1
251 476 -1
252 476 -1
253 476 -1
254 476 -1
255 476 -1
256 476 -1
257 476 -1
258 476 -1
259 476 -1
260 476 -1
261 476 -1
262 476 -1
263 476 -1
264 476 -1
265 476 -1
266 476 -1
267 476 -1
268 476 -1
269 476 -1
270 476 -1
271 476 -1
272 476 -1
273 476 -1
274 476 -1
275 476 -1
276 476 -1
277 476 -1
278 476 -1
279 476 -1
280 476 -1
281 476 -1
282 476 -1
283 476 -1
284 476 -1
285 476 -1
286 476 -1
287 476 -1
288 476 -1
289 476 -1
290 476 -1
291 476 -1
292 476 -1
293 476 -1
294 476 -1
295 476 -1
296 476 -1
297 476 -1
298 476 -1
299 476 -1
300 476 -1
301 476 -1
302 476 -1
303 476 -1
304 476 -1
305 476 -1
306 476 -1
307 476 -1
308 476 -1
309 476 -1
310 476 -1
311 476 -1
312 476 -1
313 476 -1
314 476 -1
315 476 -1
316 476 -1
317 476 -1
318 476 -1
319 476 -1
320 476 -1
281 477 -1
282 477 -1
283 477 -1
284 477 -1
285 477 -1
286 477 -1
287 477 -1
288 477 -1
289 477 -1
290 477 -1
291 477 -1
292 477 -1
293 477 -1
294 477 -1
295 477 -1
296 477 -1
297 477 -1
298 477 -1
299 477 -1
300 477 -1
301 477 -1
302 477 -1
303 477 -1
304 477 -1
305 477 -1
306 477 -1
307 477 -1
308 477 -1
309 477 -1
310 477 -1
311 477 -1
312 477 -1
313 477 -1
314 477 -1
315 477 -1
316 477 -1
317 477 -1
318 477 -1
319 477 -1
320 477 -1
321 477 -1
322 477 -1
323 477 -1
324 477 -1
325 477 -1
326 477 -1
327 477 -1
328 477 -1
329 477 -1
330 477 -1
331 477 -1
332 477 -1
333 477 -1
334 477 -1
335 477 -1
336 477 -1
337 477 -1
338 477 -1
339 477 -1
340 477 -1
341 477 -1
342 477 -1
343 477 -1
344 477 -1
345 477 -1
346 477 -1
347 477 -1
348 477 -1
349 477 -1
350 477 -1
351 477 -1
352 477 -1
353 477 -1
354 477 -1
355 477 -1
356 477 -1
357 477 -1
358 477 -1
359 477 -1
360 477 -1
321 478 -1
322 478 -1
323 478 -1
324 478 -1
325 478 -1
326 478 -1
327 478 -1
328 478 -1
329 478 -1
330 478 -1
331 478 -1
332 478 -1
333 478 -1
334 478 -1
335 478 -1
336 478 -1
337 478 -1
338 478 -1
339 478 -1
340 478 -1
341 478 -1
342 478 -1
343 478 -1
344 478 -1
345 478 -1
346 478 -1
347 478 -1
348 478 -1
349 478 -1
350 478 -1
351 478 -1
352 478 -1
353 478 -1
354 478 -1
355 478 -1
356 478 -1
357 478 -1
358 478 -1
359 478 -1
360 478 -1
361 478 -1
362 478 -1
363 478 -1
364 478 -1
365 478 -1
366 478 -1
367 478 -1
368 478 -1
369 478 -1
370 478 -1
371 478 -1
372 478 -1
373 478 -1
374 478 -1
375 478 -1
376 478 -1
377 478 -1
378 478 -1
379 478 -1
380 478 -1
381 478 -1
382 478 -1
383 478 -1
384 478 -1
385 478 -1
386 478 -1
387 478 -1
388 478 -1
389 478 -1
390 478 -1
391 478 -1
392 478 -1
393 478 -1
394 478 -1
395 478 -1
396 478 -1
397 478 -1
398 478 -1
399 478 -1
400 478 -1
0 470 -1
0 471 -1
0 472 -1
0 473 -1
0 474 -1
0 475 -1
0 476 -1
0 477 -1
0 478 -1
1 479 -1
2 479 -1
3 479 -1
4 479 -1
5 479 -1
6 479 -1
7 479 -1
8 479 -1
9 479 -1
10 479 -1
11 479 -1
12 479 -1
13 479 -1
14 479 -1
15 479 -1
16 479 -1
17 479 -1
18 479 -1
19 479 -1
20 479 -1
21 479 -1
22 479 -1
23 479 -1
24 479 -1
25 479 -1
26 479 -1
27 479 -1
28 479 -1
29 479 -1
30 479 -1
31 479 -1
32 479 -1
33 479 -1
34 479 -1
35 479 -1
36 479 -1
37 479 -1
38 479 -1
39 479 -1
40 479 -1
41 479 -1
42 479 -1
43 479 -1
44 479 -1
45 479 -1
46 479 -1
47 479 -1
48 479 -1
49 479 -1
50 479 -1
51 479 -1
52 479 -1
53 479 -1
54 479 -1
55 479 -1
56 479 -1
57 479 -1
58 479 -1
59 479 -1
60 479 -1
61 479 -1
62 479 -1
63 479 -1
64 479 -1
65 479 -1
66 479 -1
67 479 -1
68 479 -1
69 479 -1
70 479 -1
71 479 -1
72 479 -1
73 479 -1
74 479 -1
75 479 -1
76 479 -1
77 479 -1
78 479 -1
79 479 -1
80 479 -1
41 480 -1
42 480 -1
43 480 -1
44 480 -1
45 480 -1
46 480 -1
47 480 -1
48 480 -1
49 480 -1
50 480 -1
51 480 -1
52 480 -1
53 480 -1
54 480 -1
55 480 -1
56 480 -1
57 480 -1
58 480 -1
59 480 -1
60 480 -1
61 480 -1
62 480 -1
63 480 -1
64 480 -1
65 480 -1
66 480 -1
67 480 -1
68 480 -1
69 480 -1
70 480 -1
71 480 -1
72 480 -1
73 480 -1
74 480 -1
75 480 -1
76 480 -1
77 480 -1
78 480 -1
79 480 -1
80 480 -1
81 480 -1
82 480 -1
83 480 -1
84 480 -1
85 480 -1
86 480 -1
87 480 -1
88 480 -1
89 480 -1
90 480 -1
91 480 -1
92 480 -1
93 480 -1
94 480 -1
95 480 -1
96 480 -1
97 480 -1
98 480 -1
99 480 -1
100 480 -1
101 480 -1
102 480 -1
103 480 -1
104 480 -1
105 480 -1
106 480 -1
107 480 -1
108 480 -1
109 480 -1
110 480 -1
111 480 -1
112 480 -1
113 480 -1
114 480 -1
115 480 -1
116 480 -1
117 480 -1
118 480 -1
119 480 -1
120 480 -1
81 481 -1
82 481 -1
83 481 -1
84 481 -1
85 481 -1
86 481 -1
87 481 -1
88 481 -1
89 481 -1
90 481 -1
91 481 -1
92 481 -1
93 481 -1
94 481 -1
95 481 -1
96 481 -1
97 481 -1
98 481 -1
99 481 -1
100 481 -1
101 481 -1
102 481 -1
103 481 -1
104 481 -1
105 481 -1
106 481 -1
107 481 -1
108 481 -1
109 481 -1
110 481 -1
111 481 -1
112 481 -1
113 481 -1
114 481 -1
115 481 -1
116 481 -1
117 481 -1
118 481 -1
119 481 -1
120 481 -1
121 481 -1
122 481 -1
123 481 -1
124 481 -1
125 481 -1
126 481 -1
127 481 -1
128 481 -1
129 481 -1
130 481 -1
131 481 -1
132 481 -1
133 481 -1
134 481 -1
135 481 -1
136 481 -1
137 481 -1
138 481 -1
139 481 -1
140 481 -1
141 481 -1
142 481 -1
143 481 -1
144 481 -1
145 481 -1
146 481 -1
147 481 -1
148 481 -1
149 481 -1
150 481 -1
151 481 -1
152 481 -1
153 481 -1
154 481 -1
155 481 -1
156 481 -1
157 481 -1
158 481 -1
159 481 -1
160 481 -1
121 482 -1
122 482 -1
123 482 -1
124 482 -1
125 482 -1
126 482 -1
127 482 -1
128 482 -1
129 482 -1
130 482 -1
131 482 -1
132 482 -1
133 482 -1
134 482 -1
135 482 -1
136 482 -1
137 482 -1
138 482 -1
139 482 -1
140 482 -1
141 482 -1
142 482 -1
143 482 -1
144 482 -1
145 482 -1
146 482 -1
147 482 -1
148 482 -1
149 482 -1
150 482 -1
151 482 -1
152 482 -1
153 482 -1
154 482 -1
155 482 -1
156 482 -1
157 482 -1
158 482 -1
159 482 -1
160 482 -1
161 482 -1
162 482 -1
163 482 -1
164 482 -1
165 482 -1
166 482 -1
167 482 -1
168 482 -1
169 482 -1
170 482 -1
171 482 -1
172 482 -1
173 482 -1
174 482 -1
175 482 -1
176 482 -1
177 482 -1
178 482 -1
179 482 -1
180 482 -1
181 482 -1
182 482 -1
183 482 -1
184 482 -1
185 482 -1
186 482 -1
187 482 -1
188 482 -1
189 482 -1
190 482 -1
191 482 -1
192 482 -1
193 482 -1
194 482 -1
195 482 -1
196 482 -1
197 482 -1
198 482 -1
199 482 -1
200 482 -1
161 483 -1
162 483 -1
163 483 -1
164 483 -1
165 483 -1
166 483 -1
167 483 -1
168 483 -1
169 483 -1
170 483 -1
171 483 -1
172 483 -1
173 483 -1
174 483 -1
175 483 -1
176 483 -1
177 483 -1
178 483 -1
179 483 -1
180 483 -1
181 483 -1
182 483 -1
183 483 -1
184 483 -1
185 483 -1
186 483 -1
187 483 -1
188 483 -1
189 483 -1
190 483 -1
191 483 -1
192 483 -1
193 483 -1
194 483 -1
195 483 -1
196 483 -1
197 483 -1
198 483 -1
199 483 -1
200 483 -1
201 483 -1
202 483 -1
203 483 -1
204 483 -1
205 483 -1
206 483 -1
207 483 -1
208 483 -1
209 483 -1
210 483 -1
211 483 -1
212 483 -1
213 483 -1
214 483 -1
215 483 -1
216 483 -1
217 483 -1
218 483 -1
219 483 -1
220 483 -1
221 483 -1
222 483 -1
223 483 -1
224 483 -1
225 483 -1
226 483 -1
227 483 -1
228 483 -1
229 483 -1
230 483 -1
231 483 -1
232 483 -1
233 483 -1
234 483 -1
235 483 -1
236 483 -1
237 483 -1
238 483 -1
239 483 -1
240 483 -1
201 484 -1
202 484 -1
203 484 -1
204 484 -1
205 484 -1
206 484 -1
207 484 -1
208 484 -1
209 484 -1
210 484 -1
211 484 -1
212 484 -1
213 484 -1
214 484 -1
215 484 -1
216 484 -1
217 484 -1
218 484 -1
219 484 -1
220 484 -1
221 484 -1
222 484 -1
223 484 -1
224 484 -1
225 484 -1
226 484 -1
227 484 -1
228 484 -1
229 484 -1
230 484 -1
231 484 -1
232 484 -1
233 484 -1
234 484 -1
235 484 -1
236 484 -1
237 484 -1
238 484 -1
239 484 -1
240 484 -1
241 484 -1
242 484 -1
243 484 -1
244 484 -1
245 484 -1
246 484 -1
247 484 -1
248 484 -1
249 484 -1
250 484 -1
251 484 -1
252 484 -1
253 484 -1
254 484 -1
255 484 -1
256 484 -1
257 484 -1
258 484 -1
259 484 -1
260 484 -1
261 484 -1
262 484 -1
263 484 -1
264 484 -1
265 484 -1
266 484 -1
267 484 -1
268 484 -1
269 484 -1
270 484 -1
271 484 -1
272 484 -1
273 484 -1
274 484 -1
275 484 -1
276 484 -1
277 484 -1
278 484 -1
279 484 -1
280 484 -1
241 485 -1
242 485 -1
243 485 -1
244 485 -1
245 485 -1
246 485 -1
247 485 -1
248 485 -1
249 485 -1
250 485 -1
251 485 -1
252 485 -1
253 485 -1
254 485 -1
255 485 -1
256 485 -1
257 485 -1
258 485 -1
259 485 -1
260 485 -1
261 485 -1
262 485 -1
263 485 -1
264 485 -1
265 485 -1
266 485 -1
267 485 -1
268 485 -1
269 485 -1
270 485 -1
271 485 -1
272 485 -1
273 485 -1
274 485 -1
275 485 -1
276 485 -1
277 485 -1
278 485 -1
279 485 -1
280 485 -1
281 485 -1
282 485 -1
283 485 -1
284 485 -1
285 485 -1
286 485 -1
287 485 -1
288 485 -1
289 485 -1
290 485 -1
291 485 -1
292 485 -1
293 485 -1
294 485 -1
295 485 -1
296 485 -1
297 485 -1
298 485 -1
299 485 -1
300 485 -1
301 485 -1
302 485 -1
303 485 -1
304 485 -1
305 485 -1
306 485 -1
307 485 -1
308 485 -1
309 485 -1
310 485 -1
311 485 -1
312 485 -1
313 485 -1
314 485 -1
315 485 -1
316 485 -1
317 485 -1
318 485 -1
319 485 -1
320 485 -1
281 486 -1
282 486 -1
283 486 -1
284 486 -1
285 486 -1
286 486 -1
287 486 -1
288 486 -1
289 486 -1
290 486 -1
291 486 -1
292 486 -1
293 486 -1
294 486 -1
295 486 -1
296 486 -1
297 486 -1
298 486 -1
299 486 -1
300 486 -1
301 486 -1
302 486 -1
303 486 -1
304 486 -1
305 486 -1
306 486 -1
307 486 -1
308 486 -1
309 486 -1
310 486 -1
311 486 -1
312 486 -1
313 486 -1
314 486 -1
315 486 -1
316 486 -1
317 486 -1
318 486 -1
319 486 -1
320 486 -1
321 486 -1
322 486 -1
323 486 -1
324 486 -1
325 486 -1
326 486 -1
327 486 -1
328 486 -1
329 486 -1
330 486 -1
331 486 -1
332 486 -1
333 486 -1
334 486 -1
335 486 -1
336 486 -1
337 486 -1
338 486 -1
339 486 -1
340 486 -1
341 486 -1
342 486 -1
343 486 -1
344 486 -1
345 486 -1
346 486 -1
347 486 -1
348 486 -1
349 486 -1
350 486 -1
351 486 -1
352 486 -1
353 486 -1
354 486 -1
355 486 -1
356 486 -1
357 486 -1
358 486 -1
359 486 -1
360 486 -1
321 487 -1
322 487 -1
323 487 -1
324 487 -1
325 487 -1
326 487 -1
327 487 -1
328 487 -1
329 487 -1
330 487 -1
331 487 -1
332 487 -1
333 487 -1
334 487 -1
335 487 -1
336 487 -1
337 487 -1
338 487 -1
339 487 -1
340 487 -1
341 487 -1
342 487 -1
343 487 -1
344 487 -1
345 487 -1
346 487 -1
347 487 -1
348 487 -1
349 487 -1
350 487 -1
351 487 -1
352 487 -1
353 487 -1
354 487 -1
355 487 -1
356 487 -1
357 487 -1
358 487 -1
359 487 -1
360 487 -1
361 487 -1
362 487 -1
363 487 -1
364 487 -1
365 487 -1
366 487 -1
367 487 -1
368 487 -1
369 487 -1
370 487 -1
371 487 -1
372 487 -1
373 487 -1
374 487 -1
375 487 -1
376 487 -1
377 487 -1
378 487 -1
379 487 -1
380 487 -1
381 487 -1
382 487 -1
383 487 -1
384 487 -1
385 487 -1
386 487 -1
387 487 -1
388 487 -1
389 487 -1
390 487 -1
391 487 -1
392 487 -1
393 487 -1
394 487 -1
395 487 -1
396 487 -1
397 487 -1
398 487 -1
399 487 -1
400 487 -1
0 479 -1
0 480 -1
0 481 -1
0 482 -1
0 483 -1
0 484 -1
0 485 -1
0 486 -1
0 487 -1
401 488 -1
401 489 -1
401 490 -1
401 491 -1
401 492 -1
402 488 -1
402 489 -1
402 490 -1
402 491 -1
402 492 -1
403 488 -1
403 489 -1
403 490 -1
403 491 -1
403 492 -1
404 488 -1
404 489 -1
404 490 -1
404 491 -1
404 492 -1
405 488 -1
405 489 -1
405 490 -1
405 491 -1
405 492 -1
406 488 -1
406 489 -1
406 490 -1
406 491 -1
406 492 -1
407 488 -1
407 489 -1
407 490 -1
407 491 -1
407 492 -1
408 488 -1
408 489 -1
408 490 -1
408 491 -1
408 492 -1
409 488 -1
409 489 -1
409 490 -1
409 491 -1
409 492 -1
410 488 -1
410 489 -1
410 490 -1
410 491 -1
410 492 -1
411 488 -1
411 489 -1
411 490 -1
411 491 -1
411 492 -1
412 488 -1
412 489 -1
412 490 -1
412 491 -1
412 492 -1
413 488 -1
413 489 -1
413 490 -1
413 491 -1
413 492 -1
414 488 -1
414 489 -1
414 490 -1
414 491 -1
414 492 -1
415 488 -1
415 489 -1
415 490 -1
415 491 -1
415 492 -1
416 488 -1
416 489 -1
416 490 -1
416 491 -1
416 492 -1
417 488 -1
417 489 -1
417 490 -1
417 491 -1
417 492 -1
418 488 -1
418 489 -1
418 490 -1
418 491 -1
418 492 -1
419 488 -1
419 489 -1
419 490 -1
419 491 -1
419 492 -1
420 488 -1
420 489 -1
420 490 -1
420 491 -1
420 492 -1
421 488 -1
421 489 -1
421 490 -1
421 491 -1
421 492 -1
422 488 -1
422 489 -1
422 490 -1
422 491 -1
422 492 -1
423 488 -1
423 489 -1
423 490 -1
423 491 -1
423 492 -1
424 488 -1
424 489 -1
424 490 -1
424 491 -1
424 492 -1
425 488 -1
425 489 -1
425 490 -1
425 491 -1
425 492 -1
426 488 -1
426 489 -1
426 490 -1
426 491 -1
426 492 -1
427 488 -1
427 489 -1
427 490 -1
427 491 -1
427 492 -1
428 488 -1
428 489 -1
428 490 -1
428 491 -1
428 492 -1
429 488 -1
429 489 -1
429 490 -1
429 491 -1
429 492 -1
430 488 -1
430 489 -1
430 490 -1
430 491 -1
430 492 -1
431 488 -1
431 489 -1
431 490 -1
431 491 -1
431 492 -1
432 488 -1
432 489 -1
432 490 -1
432 491 -1
432 492 -1
433 488 -1
433 489 -1
433 490 -1
433 491 -1
433 492 -1
434 488 -1
434 489 -1
434 490 -1
434 491 -1
434 492 -1
435 488 -1
435 489 -1
435 490 -1
435 491 -1
435 492 -1
436 488 -1
436 489 -1
436 490 -1
436 491 -1
436 492 -1
437 488 -1
437 489 -1
437 490 -1
437 491 -1
437 492 -1
438 488 -1
438 489 -1
438 490 -1
438 491 -1
438 492 -1
439 488 -1
439 489 -1
439 490 -1
439 491 -1
439 492 -1
440 488 -1
440 489 -1
440 490 -1
440 491 -1
440 492 -1
441 488 -1
441 489 -1
441 490 -1
441 491 -1
441 492 -1
442 488 -1
442 489 -1
442 490 -1
442 491 -1
442 492 -1
443 488 -1
443 489 -1
443 490 -1
443 491 -1
443 492 -1
444 488 -1
444 489 -1
444 490 -1
444 491 -1
444 492 -1
445 488 -1
445 489 -1
445 490 -1
445 491 -1
445 492 -1
446 488 -1
446 489 -1
446 490 -1
446 491 -1
446 492 -1
447 488 -1
447 489 -1
447 490 -1
447 491 -1
447 492 -1
448 488 -1
448 489 -1
448 490 -1
448 491 -1
448 492 -1
449 488 -1
449 489 -1
449 490 -1
449 491 -1
449 492 -1
450 488 -1
450 489 -1
450 490 -1
450 491 -1
450 492 -1
451 488 -1
451 489 -1
451 490 -1
451 491 -1
451 492 -1
452 488 -1
452 489 -1
452 490 -1
452 491 -1
452 492 -1
453 488 -1
453 489 -1
453 490 -1
453 491 -1
453 492 -1
454 488 -1
454 489 -1
454 490 -1
454 491 -1
454 492 -1
455 488 -1
455 489 -1
455 490 -1
455 491 -1
455 492 -1
456 488 -1
456 489 -1
456 490 -1
456 491 -1
456 492 -1
457 488 -1
457 489 -1
457 490 -1
457 491 -1
457 492 -1
458 488 -1
458 489 -1
458 490 -1
458 491 -1
458 492 -1
459 488 -1
459 489 -1
459 490 -1
459 491 -1
459 492 -1
460 488 -1
460 489 -1
460 490 -1
460 491 -1
460 492 -1
461 488 -1
461 489 -1
461 490 -1
461 491 -1
461 492 -1
462 488 -1
462 489 -1
462 490 -1
462 491 -1
462 492 -1
463 488 -1
463 489 -1
463 490 -1
463 491 -1
463 492 -1
464 488 -1
464 489 -1
464 490 -1
464 491 -1
464 492 -1
465 488 -1
465 489 -1
465 490 -1
465 491 -1
465 492 -1
466 488 -1
466 489 -1
466 490 -1
466 491 -1
466 492 -1
467 488 -1
467 489 -1
467 490 -1
467 491 -1
467 492 -1
468 488 -1
468 489 -1
468 490 -1
468 491 -1
468 492 -1
469 488 -1
469 489 -1
469 490 -1
469 491 -1
469 492 -1
470 488 -1
470 489 -1
470 490 -1
470 491 -1
470 492 -1
471 488 -1
471 489 -1
471 490 -1
471 491 -1
471 492 -1
472 488 -1
472 489 -1
472 490 -1
472 491 -1
472 492 -1
473 488 -1
473 489 -1
473 490 -1
473 491 -1
473 492 -1
474 488 -1
474 489 -1
474 490 -1
474 491 -1
474 492 -1
475 488 -1
475 489 -1
475 490 -1
475 491 -1
475 492 -1
476 488 -1
476 489 -1
476 490 -1
476 491 -1
476 492 -1
477 488 -1
477 489 -1
477 490 -1
477 491 -1
477 492 -1
478 488 -1
478 489 -1
478 490 -1
478 491 -1
478 492 -1
479 488 -1
479 489 -1
479 490 -1
479 491 -1
479 492 -1
480 488 -1
480 489 -1
480 490 -1
480 491 -1
480 492 -1
481 488 -1
481 489 -1
481 490 -1
481 491 -1
481 492 -1
482 488 -1
482 489 -1
482 490 -1
482 491 -1
482 492 -1
483 488 -1
483 489 -1
483 490 -1
483 491 -1
483 492 -1
484 488 -1
484 489 -1
484 490 -1
484 491 -1
484 492 -1
485 488 -1
485 489 -1
485 490 -1
485 491 -1
485 492 -1
486 488 -1
486 489 -1
486 490 -1
486 491 -1
486 492 -1
487 488 -1
487 489 -1
487 490 -1
487 491 -1
487 492 -1
0 488 -1
0 489 -1
0 490 -1
0 491 -1
0 492 -1
